…
## 2. Is there a relationship between extreme flow events and specific years or months?

Summarizing: Categorizing Flow Events, the code categorizes each flow
event in the flow_sample data into one of three categories: Low, Medium,
and High.

``` r
flow_with_categories <- flow_sample %>%
  mutate(flow_category = cut(flow, 
                             breaks = c(-Inf, 40, 60, Inf),
                             labels = c("Low", "Medium", "High")))
print(flow_with_categories)
```

    ## # A tibble: 218 × 8
    ##    station_id  year extreme_type month   day  flow sym   flow_category
    ##    <chr>      <dbl> <chr>        <dbl> <dbl> <dbl> <chr> <fct>        
    ##  1 05BB001     1909 maximum          7     7   314 <NA>  High         
    ##  2 05BB001     1910 maximum          6    12   230 <NA>  High         
    ##  3 05BB001     1911 maximum          6    14   264 <NA>  High         
    ##  4 05BB001     1912 maximum          8    25   174 <NA>  High         
    ##  5 05BB001     1913 maximum          6    11   232 <NA>  High         
    ##  6 05BB001     1914 maximum          6    18   214 <NA>  High         
    ##  7 05BB001     1915 maximum          6    27   236 <NA>  High         
    ##  8 05BB001     1916 maximum          6    20   309 <NA>  High         
    ##  9 05BB001     1917 maximum          6    17   174 <NA>  High         
    ## 10 05BB001     1918 maximum          6    15   345 <NA>  High         
    ## # ℹ 208 more rows
…
